lab3/src/signals.vcd
$date
     May 09, 2022       17:14:04
$end

$version
 SystemC 2.3.3-Accellera --- Feb 21 2022 19:14:31
$end

$timescale
     1 ns
$end

$scope module SystemC $end
$var wire    1  aaaaa  CLK       $end
$var real    1  aaaab  In1       $end
$var real    1  aaaac  In2       $end
$var real    1  aaaad  Sum       $end
$var real    1  aaaae  Diff       $end
$var real    1  aaaaf  Prod       $end
$var real    1  aaaag  Quot       $end
$var real    1  aaaah  Pow       $end
$upscope $end
$enddefinitions  $end

$comment
All initial values are dumped below at time 0 sec = 0 timescale units.
$end

$dumpvars
0aaaaa
r133.06 aaaab
r95.44 aaaac
r0 aaaad
r0 aaaae
r0 aaaaf
r0 aaaag
r0 aaaah
$end

#10
1aaaaa
r131.56 aaaab
r92.64 aaaac
r228.5 aaaad
r37.62 aaaae

#20
0aaaaa

#30
1aaaaa
r130.06 aaaab
r89.84 aaaac
r224.2 aaaad
r38.92 aaaae
r8596.170000000002 aaaaf
r6.073896863370547 aaaag

#40
0aaaaa

#50
1aaaaa
r128.56 aaaab
r87.04000000000001 aaaac
r219.9 aaaad
r40.22 aaaae
r8725.864 aaaaf
r5.760534429599177 aaaag
r7.880663294494549e+23 aaaah

#60
0aaaaa

#70
1aaaaa
r127.06 aaaab
r84.24000000000001 aaaac
r215.6 aaaad
r41.52 aaaae
r8844.378000000001 aaaaf
r5.467429139731477 aaaag
r5.025308156461862e+22 aaaah

#80
0aaaaa

#90
1aaaaa
r125.56 aaaab
r81.44000000000001 aaaac
r211.3 aaaad
r42.81999999999999 aaaae
r8951.712 aaaaf
r5.192678227360309 aaaag
r3.785504588212786e+21 aaaah

#100
0aaaaa

#110
1aaaaa
r124.06 aaaab
r78.64000000000001 aaaac
r207 aaaad
r44.11999999999999 aaaae
r9047.865999999998 aaaaf
r4.934609995329287 aaaag
r3.318767046037861e+20 aaaah

#120
0aaaaa

#130
1aaaaa
r122.56 aaaab
r75.84000000000002 aaaac
r202.7 aaaad
r45.41999999999999 aaaae
r9132.839999999998 aaaaf
r4.691749773345423 aaaag
r3.342044498889812e+19 aaaah

#140
0aaaaa

#150
1aaaaa
r121.06 aaaab
r73.04000000000002 aaaac
r198.4 aaaad
r46.71999999999998 aaaae
r9206.633999999998 aaaaf
r4.4627917217085 aaaag
r3.820952118187878e+18 aaaah

#160
0aaaaa

#170
1aaaaa
r119.56 aaaab
r70.24000000000002 aaaac
r194.1 aaaad
r48.01999999999998 aaaae
r9269.247999999998 aaaaf
r4.246575342465755 aaaag
r4.9085880406986e+17 aaaah

#180
0aaaaa

#190
1aaaaa
r118.06 aaaab
r67.44000000000003 aaaac
r189.8 aaaad
r49.31999999999998 aaaae
r9320.681999999997 aaaaf
r4.042065805914205 aaaag
r7.02026270784911e+16 aaaah

#200
0aaaaa

#210
1aaaaa
r116.56 aaaab
r64.64000000000003 aaaac
r185.5 aaaad
r50.61999999999998 aaaae
r9360.935999999996 aaaaf
r3.848337388483376 aaaag
r1.108584445158003e+16 aaaah

#220
0aaaaa

#230
1aaaaa
r115.06 aaaab
r61.84000000000003 aaaac
r181.2 aaaad
r51.91999999999997 aaaae
r9390.009999999997 aaaaf
r3.664559462662981 aaaag
r1918564708588393 aaaah

#240
0aaaaa

#250
1aaaaa
r113.56 aaaab
r59.04000000000003 aaaac
r176.9 aaaad
r53.21999999999997 aaaae
r9407.903999999997 aaaaf
r3.48998459167951 aaaag
r361468937900785.4 aaaah

#260
0aaaaa

#270
1aaaaa
r112.06 aaaab
r56.24000000000004 aaaac
r172.6 aaaad
r54.51999999999997 aaaae
r9414.617999999997 aaaaf
r3.3239383690342 aaaag
r73693454684249.92 aaaah

#280
0aaaaa

#290
1aaaaa
r110.56 aaaab
r53.44000000000004 aaaac
r168.3 aaaad
r55.81999999999996 aaaae
r9410.151999999996 aaaaf
r3.165810711665446 aaaag
r16168706434671.58 aaaah

#300
0aaaaa

#310
1aaaaa
r109.06 aaaab
r50.64000000000004 aaaac
r164.0000000000001 aaaad
r57.11999999999996 aaaae
r9394.505999999996 aaaaf
r3.015048369759946 aaaag
r3798873238107.018 aaaah

#320
0aaaaa

#330
1aaaaa
r107.56 aaaab
r47.84000000000005 aaaac
r159.7 aaaad
r58.41999999999996 aaaae
r9367.679999999997 aaaaf
r2.871148459383757 aaaag
r951496336681.913 aaaah

#340
0aaaaa

#350
1aaaaa
r106.06 aaaab
r45.04000000000005 aaaac
r155.4 aaaad
r59.71999999999996 aaaae
r9329.673999999995 aaaaf
r2.733652858610068 aaaag
r253014396064.4423 aaaah

#360
0aaaaa

#370
1aaaaa
r104.56 aaaab
r42.24000000000005 aaaac
r151.1000000000001 aaaad
r61.01999999999995 aaaae
r9280.487999999996 aaaaf
r2.602143335565977 aaaag
r71160144395.97931 aaaah

#380
0aaaaa

#390
1aaaaa
r103.06 aaaab
r39.44000000000005 aaaac
r146.8000000000001 aaaad
r62.31999999999995 aaaae
r9220.121999999996 aaaaf
r2.476237299246152 aaaag
r21095409040.5688 aaaah

#400
0aaaaa

#410
1aaaaa
r101.56 aaaab
r36.64000000000006 aaaac
r142.5000000000001 aaaad
r63.61999999999995 aaaae
r9148.575999999997 aaaaf
r2.355584082156614 aaaag
r6570959918.812003 aaaah

#420
0aaaaa

#430
1aaaaa
r100.06 aaaab
r33.84000000000006 aaaac
r138.2 aaaad
r64.91999999999994 aaaae
r9065.849999999997 aaaaf
r2.239861678717387 aaaag
r2144377535.8138 aaaah

#440
0aaaaa

#450
1aaaaa
r98.56 aaaab
r31.04000000000006 aaaac
r133.9000000000001 aaaad
r66.21999999999994 aaaae
r8971.943999999996 aaaaf
r2.128773875539128 aaaag
r731219410.5057685 aaaah

#460
0aaaaa

#470
1aaaaa
r97.06 aaaab
r28.24000000000006 aaaac
r129.6000000000001 aaaad
r67.51999999999994 aaaae
r8866.857999999997 aaaaf
r2.022047719722141 aaaag
r259897217.2803263 aaaah

#480
0aaaaa

#490
1aaaaa
r95.56 aaaab
r25.44000000000006 aaaac
r125.3000000000001 aaaad
r68.81999999999994 aaaae
r8750.591999999995 aaaaf
r1.919431279620855 aaaag
r96068017.36653221 aaaah

#500
0aaaaa

#510
1aaaaa
r94.06 aaaab
r22.64000000000006 aaaac
r121.0000000000001 aaaad
r70.11999999999995 aaaae
r8623.145999999997 aaaaf
r1.82069165940134 aaaag
r36852754.87464556 aaaah

#520
0aaaaa

#530
1aaaaa
r92.56 aaaab
r19.84000000000006 aaaac
r116.7000000000001 aaaad
r71.41999999999994 aaaae
r8484.519999999997 aaaaf
r1.725613234455222 aaaag
r14643125.53882816 aaaah

#540
0aaaaa

#550
1aaaaa
r91.06 aaaab
r17.04000000000006 aaaac
r112.4000000000001 aaaad
r72.71999999999994 aaaae
r8334.713999999998 aaaaf
r1.633996079529546 aaaag
r6015770.001652755 aaaah

#560
0aaaaa

#570
1aaaaa
r89.56 aaaab
r14.24000000000006 aaaac
r108.1000000000001 aaaad
r74.01999999999995 aaaae
r8173.727999999998 aaaaf
r1.545654565456548 aaaag
r2551056.252336602 aaaah

#580
0aaaaa

#590
1aaaaa
r88.06 aaaab
r11.44000000000005 aaaac
r103.8000000000001 aaaad
r75.31999999999995 aaaae
r8001.561999999999 aaaaf
r1.460416103755743 aaaag
r1114936.454099941 aaaah

#600
0aaaaa

#610
1aaaaa
r86.56 aaaab
r8.640000000000054 aaaac
r99.50000000000006 aaaad
r76.61999999999995 aaaae
r7818.215999999999 aaaaf
r1.378120021242699 aaaag
r501486.5582467156 aaaah

#620
0aaaaa

#630
1aaaaa
r85.06 aaaab
r5.840000000000054 aaaac
r95.20000000000006 aaaad
r77.91999999999994 aaaae
r7623.69 aaaaf
r1.298616549203865 aaaag
r231829.9907002873 aaaah

#640
0aaaaa

#650
1aaaaa
r83.56 aaaab
r3.040000000000054 aaaac
r90.90000000000006 aaaad
r79.21999999999994 aaaae
r7417.983999999999 aaaaf
r1.221765913757702 aaaag
r110013.0011393045 aaaah

#660
0aaaaa

#670
1aaaaa
r82.06 aaaab
r0.2400000000000544 aaaac
r86.60000000000005 aaaad
r80.51999999999995 aaaae
r7201.098 aaaaf
r1.147437515778845 aaaag
r53528.29122037048 aaaah

#680
0aaaaa

#690
1aaaaa
r80.56 aaaab
r-2.559999999999945 aaaac
r82.30000000000005 aaaad
r81.81999999999995 aaaae
r6973.032 aaaaf
r1.07550919026329 aaaag
r26676.20253819449 aaaah

#700
0aaaaa

#710
1aaaaa
r79.06 aaaab
r-5.359999999999945 aaaac
r78.00000000000006 aaaad
r83.11999999999995 aaaae
r6733.786 aaaaf
r1.005866536299195 aaaag
r13603.01933915479 aaaah

#720
0aaaaa

#730
1aaaaa
r77.56 aaaab
r-8.159999999999945 aaaac
r73.70000000000006 aaaad
r84.41999999999994 aaaae
r6483.360000000001 aaaaf
r0.9384023099133795 aaaag
r7091.170580193587 aaaah

#740
0aaaaa

#750
1aaaaa
r76.06 aaaab
r-10.95999999999994 aaaac
r69.40000000000006 aaaad
r85.71999999999994 aaaae
r6221.754000000001 aaaaf
r0.8730158730158742 aaaag
r3775.739764121693 aaaah

#760
0aaaaa

#770
1aaaaa
r74.56 aaaab
r-13.75999999999994 aaaac
r65.10000000000005 aaaad
r87.01999999999995 aaaae
r5948.968000000002 aaaaf
r0.8096126924871688 aaaag
r2051.852446275868 aaaah

#780
0aaaaa

#790
1aaaaa
r73.06 aaaab
r-16.55999999999995 aaaac
r60.80000000000005 aaaad
r88.31999999999995 aaaae
r5665.002000000001 aaaaf
r0.7481038841645609 aaaag
r1137.19738665755 aaaah

#800
0aaaaa

#810
1aaaaa
r71.56 aaaab
r-19.35999999999995 aaaac
r56.50000000000006 aaaad
r89.61999999999995 aaaae
r5369.856000000002 aaaaf
r0.6884057971014502 aaaag
r642.3674829463808 aaaah

#820
0aaaaa

#830
1aaaaa
r70.06 aaaab
r-22.15999999999995 aaaac
r52.20000000000006 aaaad
r90.91999999999994 aaaae
r5063.530000000002 aaaaf
r0.6304396340102666 aaaag
r369.5965461434234 aaaah

#840
0aaaaa

#850
1aaaaa
r68.56 aaaab
r-24.95999999999995 aaaac
r47.90000000000006 aaaad
r92.21999999999994 aaaae
r4746.024000000002 aaaaf
r0.5741311042674889 aaaag
r216.4882041213384 aaaah

#860
0aaaaa

#870
1aaaaa
r67.06 aaaab
r-27.75999999999995 aaaac
r43.60000000000005 aaaad
r93.51999999999995 aaaae
r4417.338000000002 aaaaf
r0.5194101062676219 aaaag
r129.0313860266488 aaaah

#880
0aaaaa

#890
1aaaaa
r65.56 aaaab
r-30.55999999999995 aaaac
r39.30000000000005 aaaad
r94.81999999999995 aaaae
r4077.472000000003 aaaaf
r0.4662104362703173 aaaag
r78.22278438714326 aaaah

#900
0aaaaa

#910
1aaaaa
r64.06 aaaab
r-33.35999999999995 aaaac
r35.00000000000006 aaaad
r96.11999999999995 aaaae
r3726.426000000003 aaaaf
r0.4144695211980602 aaaag
r48.21719670307593 aaaah

#920
0aaaaa

#930
1aaaaa
r62.56 aaaab
r-36.15999999999995 aaaac
r30.70000000000005 aaaad
r97.41999999999996 aaaae
r3364.200000000003 aaaaf
r0.364128173116938 aaaag
r30.2128638146017 aaaah

#940
0aaaaa

#950
1aaaaa
r61.06 aaaab
r-38.95999999999994 aaaac
r26.40000000000006 aaaad
r98.71999999999994 aaaae
r2990.794000000004 aaaaf
r0.3151303633750777 aaaag
r19.24141599285791 aaaah

#960
0aaaaa

#970
1aaaaa
r59.56 aaaab
r-41.75999999999994 aaaac
r22.10000000000006 aaaad
r100.02 aaaae
r2606.208000000004 aaaaf
r0.2674230145867106 aaaag
r12.4544875540925 aaaah

#980
0aaaaa

#990
1aaaaa
r58.06 aaaab
r-44.55999999999994 aaaac
r17.80000000000006 aaaad
r101.3199999999999 aaaae
r2210.442000000005 aaaaf
r0.220955808838233 aaaag
r8.194443106595875 aaaah

